…
## Examples

``` r
# \donttest{
library(omock)

# Create a mock CDM reference and add condition occurrences
cdm <- mockCdmReference() |>
  mockPerson() |>
  mockObservationPeriod() |>
  mockConditionOccurrence(recordPerson = 2)

# View the generated condition occurrence data
print(cdm$condition_occurrence)
#> # A tibble: 120 × 16
#>    condition_concept_id person_id condition_start_date condition_end_date
#>  *                <int>     <int> <date>               <date>            
#>  1               194152        10 2018-10-16           2018-12-26        
#>  2               194152        10 2018-12-04           2018-12-21        
#>  3               194152         6 2015-03-27           2015-06-30        
#>  4               194152         5 1980-02-21           1988-08-15        
#>  5               194152         4 2003-01-22           2003-10-11        
#>  6               194152         6 2006-08-07           2010-01-20        
#>  7               194152         5 1992-02-22           1993-04-02        
#>  8               194152         1 2002-02-26           2009-10-29        
#>  9               194152         5 1989-06-11           1991-03-31        
#> 10               194152         2 2010-08-04           2011-08-20        
#> # ℹ 110 more rows
#> # ℹ 12 more variables: condition_occurrence_id <int>,
#> #   condition_type_concept_id <int>, condition_start_datetime <dttm>,
#> #   condition_end_datetime <dttm>, condition_status_concept_id <int>,
#> #   stop_reason <chr>, provider_id <int>, visit_occurrence_id <int>,
#> #   visit_detail_id <int>, condition_source_value <chr>,
#> #   condition_source_concept_id <int>, condition_status_source_value <chr>
…
