Generates a mock observation table and integrates it into an existing CDM object. — mockObservation • omock
…
    Examples

library(omock)

# Create a mock CDM reference and add observation records
cdm <- mockCdmReference() |>
  mockPerson() |>
  mockObservationPeriod() |>
  mockObservation(recordPerson = 3)

# View the generated observation data
print(cdm$observation)
#> # A tibble: 630 × 18
#>    observation_concept_id person_id observation_date observation_id
#>  *                  <int>     <int> <date>                    <int>
#>  1                 437738         1 2007-10-23                    1
#>  2                 437738         2 1987-06-03                    2
#>  3                 437738         6 1990-01-30                    3
#>  4                 437738         6 1986-08-08                    4
#>  5                 437738         1 2008-11-23                    5
#>  6                 437738         3 2010-06-07                    6
#>  7                 437738         4 2004-11-07                    7
#>  8                 437738         7 2006-07-26                    8
#>  9                 437738         9 1986-07-02                    9
#> 10                 437738         1 2007-10-31                   10
#> # ℹ 620 more rows
#> # ℹ 14 more variables: observation_type_concept_id <int>,
#> #   observation_datetime <dttm>, value_as_number <dbl>, value_as_string <chr>,
#> #   value_as_concept_id <int>, qualifier_concept_id <int>,
#> #   unit_concept_id <int>, provider_id <int>, visit_occurrence_id <int>,
#> #   visit_detail_id <int>, observation_source_value <chr>,
#> #   observation_source_concept_id <int>, unit_source_value <chr>, …
…
