Generates a mock drug exposure table and integrates it into an existing CDM object. — mockDrugExposure • omock
…
Returns the modified `cdm` object with the new 'drug_exposure' table added. This table includes the simulated
        drug exposure data for each person, ensuring that each record is correctly linked to individuals in the 'person' table
        and falls within valid observation periods.

    Examples

library(omock)

# Create a mock CDM reference and add drug exposure records
cdm <- mockCdmReference() |> mockPerson() |> mockObservationPeriod() |>
      mockDrugExposure(recordPerson = 3)

# View the generated drug exposure data
print(cdm$drug_exposure)
#> # A tibble: 180 × 6
#>    drug_concept_id person_id drug_exposure_start_date drug_exposure_end_date
#>  *           <dbl>     <int> <date>                   <date>                
#>  1              10         9 1991-07-23               1995-03-08            
#>  2              10         4 1994-10-23               2003-10-24            
#>  3              10         7 2014-03-15               2014-03-22            
#>  4              10         1 2002-04-13               2004-12-14            
#>  5              10         2 1999-12-08               2001-02-27            
#>  6              10         7 2014-03-13               2014-03-26            
#>  7              10         2 1999-04-22               2002-11-26            
#>  8              10         3 2015-03-01               2015-05-28            
#>  9              10         1 2002-08-13               2005-10-05            
#> 10              10         5 2012-05-16               2012-09-02            
#> # ℹ 170 more rows
#> # ℹ 2 more variables: drug_exposure_id <int>, drug_type_concept_id <dbl>
…
