…
## Examples

``` r
library(omock)

# Create a mock CDM reference and add observation records
cdm <- mockCdmReference() |>
  mockPerson() |>
  mockObservationPeriod() |>
  mockObservation(recordPerson = 3)

# View the generated observation data
print(cdm$observation)
#> # A tibble: 180 × 18
#>    observation_concept_id person_id observation_date observation_id
#>  *                  <int>     <int> <date>                    <int>
#>  1                 437738         1 1998-07-12                    1
#>  2                 437738         4 2009-08-02                    2
#>  3                 437738         2 1993-08-04                    3
#>  4                 437738        10 2010-03-02                    4
#>  5                 437738         8 2016-01-09                    5
#>  6                 437738         4 2019-01-04                    6
#>  7                 437738         2 1985-09-22                    7
#>  8                 437738         8 2016-05-12                    8
#>  9                 437738         1 2000-10-27                    9
#> 10                 437738         7 2004-03-21                   10
#> # ℹ 170 more rows
#> # ℹ 14 more variables: observation_type_concept_id <int>,
#> #   observation_datetime <dttm>, value_as_number <dbl>, value_as_string <chr>,
#> #   value_as_concept_id <int>, qualifier_concept_id <int>,
#> #   unit_concept_id <int>, provider_id <int>, visit_occurrence_id <int>,
#> #   visit_detail_id <int>, observation_source_value <chr>,
#> #   observation_source_concept_id <int>, unit_source_value <chr>, …
```
