Adds mock concept data to a concept table within a Common Data Model (CDM) object. — mockConcepts • omock
…
    Examples

library(omock)
library(dplyr)

# Create a mock CDM reference and add concepts in the 'Condition' domain
cdm <- mockCdmReference() |> mockConcepts(
  conceptSet = c(100, 200), domain = "Condition"
)
#> Warning: ! 1 casted column in concept as do not match expected column type:
#> • `concept_id` from numeric to integer

# View the updated concept entries for the 'Condition' domain
cdm$concept |> filter(domain_id == "Condition")
#> # A tibble: 21 × 10
#>    concept_id concept_name              domain_id vocabulary_id concept_class_id
#>         <int> <chr>                     <chr>     <chr>         <chr>           
#>  1     194152 Renal agenesis and dysge… Condition SNOMED        Clinical Finding
#>  2     444074 Victim of vehicular AND/… Condition SNOMED        Clinical Finding
#>  3    4151660 Alkaline phosphatase bon… Condition SNOMED        Clinical Finding
#>  4    4226696 Manic mood                Condition SNOMED        Clinical Finding
#>  5    4304866 Elevated mood             Condition SNOMED        Clinical Finding
#>  6   40475132 Arthropathies             Condition ICD10         ICD10 SubChapter
#>  7   40475135 Other joint disorders     Condition ICD10         ICD10 SubChapter
#>  8   45430573 Renal agenesis or dysgen… Condition Read          Read            
#>  9   45511667 Manic mood                Condition Read          Read            
#> 10   45533778 Other acquired deformiti… Condition ICD10         ICD10 Hierarchy 
#> # ℹ 11 more rows
#> # ℹ 5 more variables: standard_concept <chr>, concept_code <chr>,
#> #   valid_start_date <date>, valid_end_date <date>, invalid_reason <chr>
…
