…
## Examples

``` r
library(omock)

# Create a mock CDM reference and add drug exposure records
cdm <- mockCdmReference() |>
  mockPerson() |>
  mockObservationPeriod() |>
  mockDrugExposure(recordPerson = 3)

# View the generated drug exposure data
print(cdm$drug_exposure)
#> # A tibble: 930 × 23
#>    drug_concept_id person_id drug_exposure_start_date drug_exposure_end_date
#>  *           <int>     <int> <date>                   <date>                
#>  1         1361364         4 2013-12-02               2014-09-15            
#>  2         1361364         1 2012-05-30               2013-11-10            
#>  3         1361364         2 2013-01-24               2013-02-06            
#>  4         1361364         9 2001-10-13               2001-12-20            
#>  5         1361364        10 2008-03-20               2014-07-24            
#>  6         1361364         2 2012-12-12               2012-12-25            
#>  7         1361364         8 2018-10-22               2019-03-05            
#>  8         1361364         3 2010-06-14               2012-01-24            
#>  9         1361364         7 2018-05-30               2018-11-07            
#> 10         1361364         1 2010-04-18               2011-12-26            
#> # ℹ 920 more rows
#> # ℹ 19 more variables: drug_exposure_id <int>, drug_type_concept_id <int>,
#> #   drug_exposure_start_datetime <dttm>, drug_exposure_end_datetime <dttm>,
#> #   verbatim_end_date <date>, stop_reason <chr>, refills <int>, quantity <dbl>,
#> #   days_supply <int>, sig <chr>, route_concept_id <int>, lot_number <chr>,
#> #   provider_id <int>, visit_occurrence_id <int>, visit_detail_id <int>,
#> #   drug_source_value <chr>, drug_source_concept_id <int>, …
```
