Subsetting concepts • omock
…
Keep a target concept set

Now we subset the vocabulary to two concept IDs.

cdm_subset <- cdm |>
  subsetVocabularyTables(conceptSet = c(8507L, 8532L))

cdm_subset$concept |>
  select(concept_id, concept_name, domain_id, vocabulary_id)
#> # A tibble: 2,482 × 4
#>    concept_id concept_name                               domain_id vocabulary_id
#>         <int> <chr>                                      <chr>     <chr>        
#>  1       8507 MALE                                       Gender    Gender       
#>  2       8521 OTHER                                      Gender    Gender       
#>  3       8532 FEMALE                                     Gender    Gender       
#>  4       8551 UNKNOWN                                    Gender    Gender       
#>  5       8570 AMBIGUOUS                                  Gender    Gender       
#>  6    4214687 Gender unknown                             Gender    SNOMED       
#>  7    4215271 Gender unspecified                         Gender    SNOMED       
#>  8    4231242 Surgically transgendered transsexual, fem… Gender    SNOMED       
#>  9    4234363 Surgically transgendered transsexual       Gender    SNOMED       
#> 10    4251434 Surgically transgendered transsexual, mal… Gender    SNOMED       
#> # ℹ 2,472 more rows
…
